Introduction to GIS in R
…
chi2 %>% 
  st_join(groceries, .) %>% 
  group_by(community) %>% 
  tally() %>%
  arrange(desc(n))
```

```
## Simple feature collection with 55 features and 2 fields
## geometry type:  GEOMETRY
## dimension:      XY
## bbox:           xmin: 1124188 ymin: 1826196 xmax: 1201803 ymax: 1950151
## epsg (SRID):    NA
## proj4string:    +proj=tmerc +lat_0=36.66666666666666 +lon_0=-88.33333333333333 +k=0.9999749999999999 +x_0=300000.0000000001 +y_0=0 +ellps=GRS80 +units=us-ft +no_defs
## # A tibble: 55 x 3
##    community           n                                          geometry
##    <fct>           <int>                     <MULTIPOINT [US_survey_foot]>
##  1 NEAR NORTH SIDE    12 (1169391 1910436, 1171916 1908252, 1174283 19056…
##  2 LOGAN SQUARE        8 (1150226 1915696, 1151916 1915701, 1153076 19184…
##  3 LAKE VIEW           7 (1165054 1922112, 1165147 1919657, 1166327 19242…
##  4 LOWER WEST SIDE     7 (1160692 1889319, 1162087 1889703, 1162758 18876…
##  5 NEAR WEST SIDE      7 (1165889 1894599, 1168996 1898801, 1171065 18998…
##  6 BELMONT CRAGIN      6 (1132379 1917230, 1133303 1916051, 1134857 19206…
##  7 PORTAGE PARK        5 (1138161 1931033, 1139403 1928722, 1143627 19270…
##  8 SOUTH LAWNDALE      5 (1150164 1886133, 1150463 1886334, 1154568 18865…
##  9 MCKINLEY PARK       4 (1161716 1880466, 1163330 1881780, 1163933 18828…
## 10 MORGAN PARK         4 (1162303 1832900, 1162826 1830936, 1167502 18268…
## # ... with 45 more rows
```
…
